\relax 
\providecommand\hyper@newdestlabel[2]{}
\providecommand\HyperFirstAtBeginDocument{\AtBeginDocument}
\HyperFirstAtBeginDocument{\ifx\hyper@anchor\@undefined
\global\let\oldcontentsline\contentsline
\gdef\contentsline#1#2#3#4{\oldcontentsline{#1}{#2}{#3}}
\global\let\oldnewlabel\newlabel
\gdef\newlabel#1#2{\newlabelxx{#1}#2}
\gdef\newlabelxx#1#2#3#4#5#6{\oldnewlabel{#1}{{#2}{#3}}}
\AtEndDocument{\ifx\hyper@anchor\@undefined
\let\contentsline\oldcontentsline
\let\newlabel\oldnewlabel
\fi}
\fi}
\global\let\hyper@last\relax 
\gdef\HyperFirstAtBeginDocument#1{#1}
\providecommand\HyField@AuxAddToFields[1]{}
\providecommand\HyField@AuxAddToCoFields[2]{}
\newlabel{FirstPage}{{}{1}{}{section*.1}{}}
\@writefile{toc}{\contentsline {abstract}{ABSTRACT}{1}{section*.1}\protected@file@percent }
\@writefile{toc}{\contentsline {section}{\numberline {1}Introduction}{1}{section.1}\protected@file@percent }
\newlabel{sec:Intro}{{1}{1}{Introduction}{section.1}{}}
\citation{Solar_wind_review}
\citation{Coronal_Heating_3}
\citation{1977ARA&A..15..363W}
\citation{Chromosphere_review}
\citation{Carlsson_and_Stein}
\citation{Fossum_and_Carlsson}
\citation{Chromospheric_heating_review}
\citation{Alfven_wave_review}
\citation{Alfvenic_waves_heat_penumbra}
\citation{Hansteen_HF_waves}
\citation{IRIS}
\citation{Hinode_mission_overview}
\citation{Molnar_1}
\citation{Dunn_1}
\citation{IRIS}
\citation{Hinode_mission_overview}
\citation{SDO}
\citation{SDO}
\citation{Cavallini2006}
\citation{Jaeggli2010}
\citation{Jess2010}
\citation{AO_Rimmele}
\@writefile{toc}{\contentsline {section}{\numberline {2}Observations and Data Processing}{3}{section.2}\protected@file@percent }
\newlabel{sec:Observations}{{2}{3}{Observations and Data Processing}{section.2}{}}
\@writefile{toc}{\contentsline {subsection}{\numberline {2.1}DST observations}{3}{subsection.2.1}\protected@file@percent }
\citation{Cavallini2006}
\newlabel{fig:context_1}{{1}{4}{Observations and Data Processing}{figure.1}{}}
\newlabel{fig:context_2}{{2}{4}{Observations and Data Processing}{figure.2}{}}
\@writefile{toc}{\contentsline {subsubsection}{\numberline {2.1.1}IBIS observations}{4}{subsubsection.2.1.1}\protected@file@percent }
\newlabel{sec:IBIS_data_reduction}{{2.1.1}{4}{IBIS observations}{subsubsection.2.1.1}{}}
\citation{Speckle}
\citation{MOMFBD}
\newlabel{table:Observations}{{1}{5}{DST observations}{table.1}{}}
\@writefile{toc}{\contentsline {subsubsection}{\numberline {2.1.2}IBIS data reduction}{5}{subsubsection.2.1.2}\protected@file@percent }
\newlabel{fig:IBIS_FOV_1}{{3}{6}{IBIS observations}{figure.3}{}}
\newlabel{fig:IBIS_FOV_2}{{4}{7}{IBIS observations}{figure.4}{}}
\citation{HMI}
\citation{LCT}
\citation{ALMA_1}
\citation{ALMA_ref}
\citation{2007A&A...462L..31W}
\citation{2000A&AS..144..169G}
\citation{CASA}
\citation{SOT_ref}
\citation{EIS_ref}
\citation{MERLIN_Code}
\@writefile{toc}{\contentsline {subsection}{\numberline {2.2}ALMA observations}{9}{subsection.2.2}\protected@file@percent }
\@writefile{toc}{\contentsline {subsection}{\numberline {2.3}Hinode observations}{9}{subsection.2.3}\protected@file@percent }
\@writefile{toc}{\contentsline {section}{\numberline {3}High-frequency power}{9}{section.3}\protected@file@percent }
\newlabel{sec:High_frequency_power}{{3}{9}{High-frequency power}{section.3}{}}
\@writefile{toc}{\contentsline {subsection}{\numberline {3.1}Spectral line parameters from the IBIS scans}{9}{subsection.3.1}\protected@file@percent }
\citation{Uitenbroek2003}
\citation{Cauzzi_2008}
\citation{H_alpha_formation}
\citation{Evans_power}
\citation{Reardon_Turbulence}
\citation{2015ApJ...812...71C}
\citation{Reardon_Turbulence}
\newlabel{subsec:spectral_line_properties}{{3.1}{10}{Spectral line parameters from the IBIS scans}{subsection.3.1}{}}
\@writefile{toc}{\contentsline {subsection}{\numberline {3.2}Fourier power spectra of the H$\alpha $ Dopplergrams}{10}{subsection.3.2}\protected@file@percent }
\citation{Molnar_1}
\citation{Reardon_Turbulence}
\citation{Reardon_Turbulence}
\newlabel{fig:initial_detection}{{5}{11}{Fourier power spectra of the H$\alpha $ Dopplergrams}{figure.5}{}}
\@writefile{toc}{\contentsline {subsection}{\numberline {3.3}Properties of the high-frequency power excess}{11}{subsection.3.3}\protected@file@percent }
\citation{Molnar_1}
\citation{H_alpha_formation}
\newlabel{table:Detections}{{2}{12}{Fourier power spectra of the H$\alpha $ Dopplergrams}{table.2}{}}
\newlabel{fig:IBIS_to_ALMA_power_spectrum}{{6}{12}{Fourier power spectra of the H$\alpha $ Dopplergrams}{figure.6}{}}
\@writefile{toc}{\contentsline {section}{\numberline {4}Systematic effects, or just the real Sun}{12}{section.4}\protected@file@percent }
\newlabel{sec:Systematics}{{4}{12}{Systematic effects, or just the real Sun}{section.4}{}}
\@writefile{toc}{\contentsline {subsection}{\numberline {4.1}Instrumental effects}{12}{subsection.4.1}\protected@file@percent }
\newlabel{fig:Where}{{7}{13}{Properties of the high-frequency power excess}{figure.7}{}}
\newlabel{fig:Power_to_Width_to_Int}{{8}{14}{Properties of the high-frequency power excess}{figure.8}{}}
\@writefile{toc}{\contentsline {subsubsection}{\numberline {4.1.1}Periodicity of the exposures}{14}{subsubsection.4.1.1}\protected@file@percent }
\@writefile{toc}{\contentsline {subsubsection}{\numberline {4.1.2}Stability of the FP etalons}{14}{subsubsection.4.1.2}\protected@file@percent }
\citation{LCT}
\citation{MFGS_info}
\newlabel{fig:Shutter_periodicity}{{9}{15}{Periodicity of the exposures}{figure.9}{}}
\@writefile{toc}{\contentsline {subsection}{\numberline {4.2}Residual seeing effects}{15}{subsection.4.2}\protected@file@percent }
\@writefile{toc}{\contentsline {subsubsection}{\numberline {4.2.1}Bulk misalignment of the narrowband images}{15}{subsubsection.4.2.1}\protected@file@percent }
\@writefile{toc}{\contentsline {subsubsection}{\numberline {4.2.2}Residual seeing effects from the small box cross correlations}{15}{subsubsection.4.2.2}\protected@file@percent }
\newlabel{sec:Seeing_residuals}{{4.2.2}{15}{Residual seeing effects from the small box cross correlations}{subsubsection.4.2.2}{}}
\@writefile{toc}{\contentsline {subsubsection}{\numberline {4.2.3}Estimating seeing conditions and their periodicities}{15}{subsubsection.4.2.3}\protected@file@percent }
\newlabel{fig:first}{{10(a)}{16}{Subfigure 10(a)}{subfigure.10.1}{}}
\newlabel{sub@fig:first}{{(a)}{16}{Subfigure 10(a)\relax }{subfigure.10.1}{}}
\newlabel{fig:second}{{10(b)}{16}{Subfigure 10(b)}{subfigure.10.2}{}}
\newlabel{sub@fig:second}{{(b)}{16}{Subfigure 10(b)\relax }{subfigure.10.2}{}}
\@writefile{lof}{\contentsline {subfigure}{\numberline{(a)}{\ignorespaces {Scan in H$\alpha $ at 17:11 UT.}}}{16}{figure.10}\protected@file@percent }
\@writefile{lof}{\contentsline {subfigure}{\numberline{(b)}{\ignorespaces {Scan in Ca II 8542 at 17:04 UT.}}}{16}{figure.10}\protected@file@percent }
\newlabel{fig:FP-stability}{{10}{16}{Stability of the FP etalons}{figure.10}{}}
\newlabel{fig:power_xyoff_center}{{11}{16}{Bulk misalignment of the narrowband images}{figure.11}{}}
\@writefile{toc}{\contentsline {section}{\numberline {5}Possible Solar explanations?}{16}{section.5}\protected@file@percent }
\newlabel{sec:Solar_explanations}{{5}{16}{Possible Solar explanations?}{section.5}{}}
\@writefile{toc}{\contentsline {subsection}{\numberline {5.1}Propagation of waves}{16}{subsection.5.1}\protected@file@percent }
\newlabel{subsec:Prop_waves}{{5.1}{16}{Propagation of waves}{subsection.5.1}{}}
\citation{Fleck1989}
\newlabel{fig:first_2}{{12(a)}{17}{Subfigure 12(a)}{subfigure.12.1}{}}
\newlabel{sub@fig:first_2}{{(a)}{17}{Subfigure 12(a)\relax }{subfigure.12.1}{}}
\newlabel{fig:second_2}{{12(b)}{17}{Subfigure 12(b)}{subfigure.12.2}{}}
\newlabel{sub@fig:second_2}{{(b)}{17}{Subfigure 12(b)\relax }{subfigure.12.2}{}}
\@writefile{lof}{\contentsline {subfigure}{\numberline{(a)}{\ignorespaces {Gradient of COG Velocity against power around 44 mHz.}}}{17}{figure.12}\protected@file@percent }
\@writefile{lof}{\contentsline {subfigure}{\numberline{(b)}{\ignorespaces {Gradient of line core intensity against power around 44 mHz.}}}{17}{figure.12}\protected@file@percent }
\newlabel{fig:grad_vel_vs_power}{{12}{17}{Residual seeing effects from the small box cross correlations}{figure.12}{}}
\newlabel{fig:MFGS_PS}{{13}{17}{Estimating seeing conditions and their periodicities}{figure.13}{}}
\@writefile{toc}{\contentsline {subsection}{\numberline {5.2}Resonant Alfv\'{e}n waves in low-lying closed loops}{17}{subsection.5.2}\protected@file@percent }
\newlabel{subsec:Resonant_Alfvenic_waves}{{5.2}{17}{Resonant Alfv\'{e}n waves in low-lying closed loops}{subsection.5.2}{}}
\citation{PFFFS}
\citation{RH}
\citation{Molnar_1}
\citation{Jing_fibrils}
\newlabel{fig:phase_delay}{{14}{18}{Propagation of waves}{figure.14}{}}
\newlabel{subsec:PFFFS}{{5.2}{18}{Resonant Alfv\'{e}n waves in low-lying closed loops}{subsection.5.2}{}}
\newlabel{eqn:B_PFE}{{1}{18}{Resonant Alfv\'{e}n waves in low-lying closed loops}{equation.5.1}{}}
\@writefile{toc}{\contentsline {section}{\numberline {6}Conclusions and future work}{18}{section.6}\protected@file@percent }
\newlabel{sec:Conclusions}{{6}{18}{Conclusions and future work}{section.6}{}}
\citation{CRISP}
\citation{GFPI}
\citation{SOLIS}
\citation{Fleck2010}
\citation{RH}
\citation{BIFROST}
\citation{Fleck2017}
\newlabel{fig:inclination_vs_power}{{15}{19}{Resonant Alfv\'{e}n waves in low-lying closed loops}{figure.15}{}}
\newlabel{fig:b_strength_vs_power}{{16}{19}{Resonant Alfv\'{e}n waves in low-lying closed loops}{figure.16}{}}
\citation{Hoyng1976}
\citation{Groth1975}
\@writefile{toc}{\contentsline {section}{\numberline {A}Estimation of the uncertainties in a power spectrum}{20}{appendix.A}\protected@file@percent }
\newlabel{app:Errors}{{A}{20}{Estimation of the uncertainties in a power spectrum}{appendix.A}{}}
\newlabel{eqn:ap2-estimate}{{\hbox {A3}}{20}{Estimation of the uncertainties in a power spectrum}{equation.A.3}{}}
\bibcite{PFFFS}{{1}{1981}{{Alissandrakis}}{{}}}
\bibcite{2005psci.book.....A}{{2}{2005}{{Aschwanden}}{{}}}
\bibcite{1948ZA.....25..161B}{{3}{1948}{{Biermann}}{{}}}
\bibcite{1980SoPh...67...29B}{{4}{1980}{{Bogod \& Gelfreikh}}{{}}}
\bibcite{Cauzzi_2008}{{5}{2008}{{Cauzzi et al.}}{{}}}
\bibcite{Cavallini2006}{{6}{2006}{{Cavallini}}{{}}}
\bibcite{2015ApJ...812...71C}{{7}{2015}{{Cranmer \& Woolsey}}{{}}}
\bibcite{Solar_wind_review}{{8}{2017}{{Cranmer et al.}}{{}}}
\bibcite{Carlsson_and_Stein}{{9}{1997}{{Carlsson \& Stein}}{{}}}
\bibcite{EIS_ref}{{10}{2007}{{Culhane et al.}}{{}}}
\bibcite{2007ApJ...657L..57C}{{11}{2007}{{Cuntz et al.}}{{}}}
\bibcite{de_Wijn_High_freq}{{12}{2005}{{de Wijn et al.}}{{}}}
\bibcite{Coronal_Heating_3}{{13}{2015}{{De Moortel \& Browning}}{{}}}
\bibcite{IRIS}{{14}{2014}{{De Pontieu et al.}}{{}}}
\bibcite{MFGS_info}{{15}{2015}{{Deng et al.}}{{}}}
\bibcite{Dunn_1}{{16}{1964}{{Dunn}}{{}}}
\newlabel{eqn:ap4-estimate}{{\hbox {A4}}{21}{Estimation of the uncertainties in a power spectrum}{equation.A.4}{}}
\newlabel{eqn:epsilonp-estimate}{{\hbox {A5}}{21}{Estimation of the uncertainties in a power spectrum}{equation.A.5}{}}
\newlabel{eqn:epsilonp_real}{{\hbox {A6}}{21}{Estimation of the uncertainties in a power spectrum}{equation.A.6}{}}
\newlabel{eqn:epsilonp_relative}{{\hbox {A7}}{21}{Estimation of the uncertainties in a power spectrum}{equation.A.7}{}}
\bibcite{Dunn_2}{{17}{1991}{{Dunn \& Smartt}}{{}}}
\bibcite{Evans_power}{{18}{1963}{{Evans et al.}}{{}}}
\bibcite{Fleck1989}{{19}{1989}{{Fleck \& Deubner}}{{}}}
\bibcite{Fleck2010}{{20}{2010}{{Fleck et al.}}{{}}}
\bibcite{Fleck2017}{{21}{2017}{{Fleck \& von der L{\"u}he}}{{}}}
\bibcite{Fontenla1993}{{22}{1993}{{Fontenla et al.}}{{}}}
\bibcite{Fontenla2011}{{23}{2011}{{Fontenla et al.}}{{}}}
\bibcite{Fossum_and_Carlsson}{{24}{2006}{{Fossum \& Carlsson}}{{}}}
\bibcite{Alfvenic_waves_heat_penumbra}{{25}{2018}{{Grant et al.}}{{}}}
\bibcite{2000A&AS..144..169G}{{26}{2000}{{Grebinskij et al.}}{{}}}
\bibcite{Groth1975}{{27}{1975}{{Groth}}{{}}}
\bibcite{BIFROST}{{28}{2011}{{Gudiksen et al.}}{{}}}
\bibcite{Hansteen_HF_waves}{{29}{2000}{{Hansteen et al.}}{{}}}
\bibcite{Hoyng1976}{{30}{1976}{{Hoyng}}{{}}}
\bibcite{Jaeggli2010}{{31}{2010}{{Jaeggli et al.}}{{}}}
\bibcite{Jess2010}{{32}{2010}{{Jess et al.}}{{}}}
\bibcite{Jing_fibrils}{{33}{2011}{{Jing et al.}}{{}}}
\bibcite{Chromosphere_review}{{34}{2006}{{Judge}}{{}}}
\bibcite{Koutchmy_waves}{{35}{1983}{{Koutchmy et al.}}{{}}}
\bibcite{SOLIS}{{36}{2001}{{Keller \& Solis Team}}{{}}}
\bibcite{Hinode_mission_overview}{{37}{2007}{{Kosugi et al.}}{{}}}
\bibcite{Speckle}{{38}{1970}{{Labeyrie}}{{}}}
\bibcite{Leenaarts_H_alpha}{{39}{2012}{{Leenaarts et al.}}{{}}}
\bibcite{AIA}{{40}{2012}{{Lemen et al.}}{{}}}
\bibcite{2007MmSAI..78..148L}{{41}{2007}{{Lites et al.}}{{}}}
\bibcite{MERLIN_Code}{{42}{2013}{{Lites \& Ichimoto}}{{}}}
\bibcite{Alfven_wave_review}{{43}{2013}{{Mathioudakis et al.}}{{}}}
\bibcite{CASA}{{44}{2007}{{McMullin et al.}}{{}}}
\bibcite{Molnar_1}{{45}{2018}{{Molnar et al.}}{{}}}
\bibcite{LCT}{{46}{1988}{{November \& Simon}}{{}}}
\bibcite{HMI}{{47}{2012}{{Pesnell et al.}}{{}}}
\bibcite{ALMA_1}{{48}{2015}{{Phillips et al.}}{{}}}
\bibcite{GFPI}{{49}{2012}{{Puschmann et al.}}{{}}}
\bibcite{Reardon_Turbulence}{{50}{2008}{{Reardon et al.}}{{}}}
\bibcite{AO_Rimmele}{{51}{2004}{{Rimmele}}{{}}}
\bibcite{CRISP}{{52}{2006}{{Scharmer}}{{}}}
\bibcite{SDO}{{53}{2012}{{Schou et al.}}{{}}}
\bibcite{1948ApJ...107....1S}{{54}{1948}{{Schwarzschild}}{{}}}
\bibcite{H_alpha_formation}{{55}{2004}{{Socas-Navarro \& Uitenbroek}}{{}}}
\bibcite{SOT_ref}{{56}{2008}{{Tsuneta et al.}}{{}}}
\bibcite{RH}{{57}{2001}{{Uitenbroek}}{{}}}
\bibcite{Uitenbroek2003}{{58}{2003}{{Uitenbroek}}{{}}}
\bibcite{Chromospheric_heating_review}{{59}{2003}{{Ulmschneider \& Musielak}}{{}}}
\bibcite{2007A&A...462L..31W}{{60}{2007}{{Wedemeyer-B{\"o}hm, \& Steffen}}{{}}}
\bibcite{ALMA_ref}{{61}{2015}{{Wedemeyer et al.}}{{}}}
\bibcite{1977ARA&A..15..363W}{{62}{1977}{{Withbroe \& Noyes}}{{}}}
\bibcite{Speckle_code}{{63}{2008}{{W{\"o}ger et al.}}{{}}}
\bibcite{Wunnenberg_waves}{{64}{2002}{{Wunnenberg et al.}}{{}}}
\bibcite{MOMFBD}{{65}{2005}{{van Noort et al.}}{{}}}
\bibstyle{aasjournal}
\newlabel{LastPage}{{}{22}{}{}{}}
